[
    {
        "label": "United Arab Emirates Dirham (AED)",
        "value": "AED"
    },
    {
        "label": "Afghan Afghani (AFN)",
        "value": "AFN"
    },
    {
        "label": "Albanian Lek (ALL)",
        "value": "ALL"
    },
    {
        "label": "Armenian Dram (AMD)",
        "value": "AMD"
    },
    {
        "label": "Netherlands Antillean Guilder (ANG)",
        "value": "ANG"
    },
    {
        "label": "Angolan Kwanza (AOA)",
        "value": "AOA"
    },
    {
        "label": "Argentine Peso (ARS)",
        "value": "ARS"
    },
    {
        "label": "Australian Dollar (AUD)",
        "value": "AUD"
    },
    {
        "label": "Aruban Florin (AWG)",
        "value": "AWG"
    },
    {
        "label": "Azerbaijani Manat (AZN)",
        "value": "AZN"
    },
    {
        "label": "Bosnia-Herzegovina Convertible Mark (BAM)",
        "value": "BAM"
    },
    {
        "label": "Barbadian Dollar (BBD)",
        "value": "BBD"
    },
    {
        "label": "Bangladeshi Taka (BDT)",
        "value": "BDT"
    },
    {
        "label": "Bulgarian Lev (BGN)",
        "value": "BGN"
    },
    {
        "label": "Bahraini Dinar (BHD)",
        "value": "BHD"
    },
    {
        "label": "Burundian Franc (BIF)",
        "value": "BIF"
    },
    {
        "label": "Bermudan Dollar (BMD)",
        "value": "BMD"
    },
    {
        "label": "Brunei Dollar (BND)",
        "value": "BND"
    },
    {
        "label": "Bolivian Boliviano (BOB)",
        "value": "BOB"
    },
    {
        "label": "Brazilian Real (BRL)",
        "value": "BRL"
    },
    {
        "label": "Bahamian Dollar (BSD)",
        "value": "BSD"
    },
    {
        "label": "Bhutanese Ngultrum (BTN)",
        "value": "BTN"
    },
    {
        "label": "Botswanan Pula (BWP)",
        "value": "BWP"
    },
    {
        "label": "Belarusian Ruble (BYN)",
        "value": "BYN"
    },
    {
        "label": "Belarusian Ruble (pre-2016) (BYR)",
        "value": "BYR"
    },
    {
        "label": "Belize Dollar (BZD)",
        "value": "BZD"
    },
    {
        "label": "Canadian Dollar (CAD)",
        "value": "CAD"
    },
    {
        "label": "Congolese Franc (CDF)",
        "value": "CDF"
    },
    {
        "label": "Swiss Franc (CHF)",
        "value": "CHF"
    },
    {
        "label": "Chilean Unit of Account (UF) (CLF)",
        "value": "CLF"
    },
    {
        "label": "Chilean Peso (CLP)",
        "value": "CLP"
    },
    {
        "label": "Chinese Yuan (Offshore) (CNH)",
        "value": "CNH"
    },
    {
        "label": "Chinese Yuan (CNY)",
        "value": "CNY"
    },
    {
        "label": "Colombian Peso (COP)",
        "value": "COP"
    },
    {
        "label": "Costa Rican Colón (CRC)",
        "value": "CRC"
    },
    {
        "label": "Cuban Convertible Peso (CUC)",
        "value": "CUC"
    },
    {
        "label": "Cape Verdean Escudo (CVE)",
        "value": "CVE"
    },
    {
        "label": "Czech Republic Koruna (CZK)",
        "value": "CZK"
    },
    {
        "label": "Djiboutian Franc (DJF)",
        "value": "DJF"
    },
    {
        "label": "Danish Krone (DKK)",
        "value": "DKK"
    },
    {
        "label": "Dominican Peso (DOP)",
        "value": "DOP"
    },
    {
        "label": "Algerian Dinar (DZD)",
        "value": "DZD"
    },
    {
        "label": "Estonian Kroon (EEK)",
        "value": "EEK"
    },
    {
        "label": "Egyptian Pound (EGP)",
        "value": "EGP"
    },
    {
        "label": "Eritrean Nakfa (ERN)",
        "value": "ERN"
    },
    {
        "label": "Ethiopian Birr (ETB)",
        "value": "ETB"
    },
    {
        "label": "Euro",
        "value": "EUR"
    },
    {
        "label": "Fijian Dollar (FJD)",
        "value": "FJD"
    },
    {
        "label": "Falkland Islands Pound (FKP)",
        "value": "FKP"
    },
    {
        "label": "British Pound Sterling (GBP)",
        "value": "GBP"
    },
    {
        "label": "Georgian Lari (GEL)",
        "value": "GEL"
    },
    {
        "label": "Guernsey Pound (GGP)",
        "value": "GGP"
    },
    {
        "label": "Ghanaian Cedi (GHS)",
        "value": "GHS"
    },
    {
        "label": "Gibraltar Pound (GIP)",
        "value": "GIP"
    },
    {
        "label": "Gambian Dalasi (GMD)",
        "value": "GMD"
    },
    {
        "label": "Guinean Franc (GNF)",
        "value": "GNF"
    },
    {
        "label": "Guatemalan Quetzal (GTQ)",
        "value": "GTQ"
    },
    {
        "label": "Guyanaese Dollar (GYD)",
        "value": "GYD"
    },
    {
        "label": "Hong Kong Dollar (HKD)",
        "value": "HKD"
    },
    {
        "label": "Honduran Lempira (HNL)",
        "value": "HNL"
    },
    {
        "label": "Croatian Kuna (HRK)",
        "value": "HRK"
    },
    {
        "label": "Haitian Gourde (HTG)",
        "value": "HTG"
    },
    {
        "label": "Hungarian Forint (HUF)",
        "value": "HUF"
    },
    {
        "label": "Indonesian Rupiah (IDR)",
        "value": "IDR"
    },
    {
        "label": "Israeli New Sheqel (ILS)",
        "value": "ILS"
    },
    {
        "label": "Indian Rupee (INR)",
        "value": "INR"
    },
    {
        "label": "Iraqi Dinar (IQD)",
        "value": "IQD"
    },
    {
        "label": "Iranian Rial (IRR)",
        "value": "IRR"
    },
    {
        "label": "Icelandic Króna (ISK)",
        "value": "ISK"
    },
    {
        "label": "Jersey Pound (JEP)",
        "value": "JEP"
    },
    {
        "label": "Jamaican Dollar (JMD)",
        "value": "JMD"
    },
    {
        "label": "Jordanian Dinar (JOD)",
        "value": "JOD"
    },
    {
        "label": "Japanese Yen (JPY)",
        "value": "JPY"
    },
    {
        "label": "Mexican Peso (MXN)",
        "value": "MXN"
    },
    {
        "label": "New Zealand Dollar (NZD)",
        "value": "NZD"
    },
    {
        "label": "Russian Ruble (RUB)",
        "value": "RUB"
    },
    {
        "label": "United States Dollar (USD)",
        "value": "USD"
    }
]